숙제 3
…
smoking <- NHANES %>%
  filter(Age >= 20) %>%
  mutate(
    CurrentSmoker = case_when(
      Smoke100 == "No" ~ "No",
      Smoke100 == "Yes" ~ as.character(SmokeNow),
      TRUE ~ NA_character_
    ),
    CurrentSmoker = factor(CurrentSmoker, levels = c("No", "Yes"))
  )
smoking

# A tibble: 7,235 × 77
      ID SurveyYr Gender   Age AgeDecade AgeMonths Race1 Race3 Education     
   <int> <fct>    <fct>  <int> <fct>         <int> <fct> <fct> <fct>         
 1 51624 2009_10  male      34 " 30-39"        409 White <NA>  High School   
 2 51624 2009_10  male      34 " 30-39"        409 White <NA>  High School   
 3 51624 2009_10  male      34 " 30-39"        409 White <NA>  High School   
 4 51630 2009_10  female    49 " 40-49"        596 White <NA>  Some College  
 5 51647 2009_10  female    45 " 40-49"        541 White <NA>  College Grad  
 6 51647 2009_10  female    45 " 40-49"        541 White <NA>  College Grad  
 7 51647 2009_10  female    45 " 40-49"        541 White <NA>  College Grad  
 8 51654 2009_10  male      66 " 60-69"        795 White <NA>  Some College  
 9 51656 2009_10  male      58 " 50-59"        707 White <NA>  College Grad  
10 51657 2009_10  male      54 " 50-59"        654 White <NA>  9 - 11th Grade
# ℹ 7,225 more rows
# ℹ 68 more variables: MaritalStatus <fct>, HHIncome <fct>, HHIncomeMid <int>,
#   Poverty <dbl>, HomeRooms <int>, HomeOwn <fct>, Work <fct>, Weight <dbl>,
#   Length <dbl>, HeadCirc <dbl>, Height <dbl>, BMI <dbl>,
#   BMICatUnder20yrs <fct>, BMI_WHO <fct>, Pulse <int>, BPSysAve <int>,
#   BPDiaAve <int>, BPSys1 <int>, BPDia1 <int>, BPSys2 <int>, BPDia2 <int>,
#   BPSys3 <int>, BPDia3 <int>, Testosterone <dbl>, DirectChol <dbl>, …
…
